{
  "navigationBarBackgroundColor": "#fff",
  "navigationBarTitleText": "我的预约",
  "onReachBottomDistance": 300,
  "usingComponents": {
    "tabs": "/components/tabs/tabs",
    "over": "/components/over/over"
  }
}